Applied Bayesian Data Analysis
…
```r
params <- rstan::extract(samples)
params <- as_tibble(params)
params
```

```
## # A tibble: 24,000 x 3
##    theta prob05  lp__
##    <dbl>  <dbl> <dbl>
##  1 0.797      1 -9.10
##  2 0.677      1 -9.20
##  3 0.716      1 -9.04
##  4 0.703      1 -9.09
##  5 0.776      1 -9.03
##  6 0.672      1 -9.23
##  7 0.841      1 -9.43
##  8 0.602      1 -9.78
##  9 0.649      1 -9.38
## 10 0.677      1 -9.20
## # ... with 23,990 more rows
```
…
